<?xml version="1.0" encoding="utf-8"?>
<svg xmlns="http://www.w3.org/2000/svg"
	xmlns:xlink="http://www.w3.org/1999/xlink"
	width="5px" height="5px" viewBox="0 0 5 5">
<circle cx="2.50" cy="2.50" r="2.50" fill="rgb(155,71,87)"/></svg>